Bergen Bysykkel 2024: Exploratory and Predictive Analytics
…
Code

# Count of rides for each hour 
bike_rides_2024 <- bike_rides_2024_data %>% 
  mutate(start_date = format(as.POSIXct(.$started_at, '%Y-%m-%d %H:%M:%S'), '%Y-%m-%d %H:%00:%00')) %>% 
  group_by(start_station_id, start_date) %>%
  summarise(n_rides = n())
# Change the class of start_date into date type (instead of character)
bike_rides_2024$start_date <- as.POSIXct(bike_rides_2024$start_date )
bike_rides_2024

# A tibble: 217,104 × 3
# Groups:   start_station_id [123]
   start_station_id start_date          n_rides
              <int> <dttm>                <int>
 1                3 2024-01-01 11:00:00       1
 2                3 2024-01-01 12:00:00       3
 3                3 2024-01-01 15:00:00       1
 4                3 2024-01-01 21:00:00       1
 5                3 2024-01-02 05:00:00       1
 6                3 2024-01-02 06:00:00       1
 7                3 2024-01-02 09:00:00       1
 8                3 2024-01-02 12:00:00       1
 9                3 2024-01-02 14:00:00       1
10                3 2024-01-02 17:00:00       1
# ℹ 217,094 more rows
…
##Problem 3:
##(a) Estimate a linear regression model for each of the stations. 
#Using factors for weekdays and hour of day as explanatory variables 
#and n_rides as the response variable. Determine the exact specification 
#as you see fit.

# Split input data into train set and test set (grouped by station id, train/test ratio is 3/1)
by_station <- df_agg %>% group_by(start_station_id) %>% 
  summarize(split = list(initial_time_split(cur_data()))) %>%
  group_by(start_station_id) %>% 
  mutate(data.train=list(training(split[[1]])),data.test=list(testing(split[[1]]))) %>%
  select(!split)
by_station

# A tibble: 123 × 3
# Groups:   start_station_id [123]
   start_station_id data.train           data.test           
              <dbl> <list>               <list>              
 1                3 <tibble [6,372 × 4]> <tibble [2,124 × 4]>
 2                5 <tibble [6,372 × 4]> <tibble [2,124 × 4]>
 3                7 <tibble [6,372 × 4]> <tibble [2,124 × 4]>
 4                8 <tibble [6,372 × 4]> <tibble [2,124 × 4]>
 5               22 <tibble [6,372 × 4]> <tibble [2,124 × 4]>
 6               24 <tibble [6,372 × 4]> <tibble [2,124 × 4]>
 7               33 <tibble [6,372 × 4]> <tibble [2,124 × 4]>
 8               34 <tibble [6,372 × 4]> <tibble [2,124 × 4]>
 9               36 <tibble [6,372 × 4]> <tibble [2,124 × 4]>
10               49 <tibble [6,372 × 4]> <tibble [2,124 × 4]>
# ℹ 113 more rows
…
## A function that fits the linear regression model to each station
station_model <- function(df) {
  lm(n_rides~weekday_start + start_hour, data=df)
}
# put the linear model to each station by using purrr:map() to apply the model to each element
models <- map(by_station$data.train, station_model)
# Put the model inside a mutate
by_station <- by_station %>%
  group_by(start_station_id) %>%
  mutate(model = map(data.train, station_model)) %>% 
  ungroup()
by_station

# A tibble: 123 × 4
   start_station_id data.train           data.test            model 
              <dbl> <list>               <list>               <list>
 1                3 <tibble [6,372 × 4]> <tibble [2,124 × 4]> <lm>  
 2                5 <tibble [6,372 × 4]> <tibble [2,124 × 4]> <lm>  
 3                7 <tibble [6,372 × 4]> <tibble [2,124 × 4]> <lm>  
 4                8 <tibble [6,372 × 4]> <tibble [2,124 × 4]> <lm>  
 5               22 <tibble [6,372 × 4]> <tibble [2,124 × 4]> <lm>  
 6               24 <tibble [6,372 × 4]> <tibble [2,124 × 4]> <lm>  
 7               33 <tibble [6,372 × 4]> <tibble [2,124 × 4]> <lm>  
 8               34 <tibble [6,372 × 4]> <tibble [2,124 × 4]> <lm>  
 9               36 <tibble [6,372 × 4]> <tibble [2,124 × 4]> <lm>  
10               49 <tibble [6,372 × 4]> <tibble [2,124 × 4]> <lm>  
# ℹ 113 more rows
…
Code

##(b) Predict the number of rides for each hour of day, 
#weekday and station using these regression models. 
#Collect the predictions in a data structure, together with the station ID.

by_station <- by_station %>%
  group_by(start_station_id) %>%
  mutate(predictions = list(predict(model[[1]], newdata=data.test[[1]]))) %>%
  ungroup()
by_station

# A tibble: 123 × 5
   start_station_id data.train           data.test            model  predictions
              <dbl> <list>               <list>               <list> <list>     
 1                3 <tibble [6,372 × 4]> <tibble [2,124 × 4]> <lm>   <dbl>      
 2                5 <tibble [6,372 × 4]> <tibble [2,124 × 4]> <lm>   <dbl>      
 3                7 <tibble [6,372 × 4]> <tibble [2,124 × 4]> <lm>   <dbl>      
 4                8 <tibble [6,372 × 4]> <tibble [2,124 × 4]> <lm>   <dbl>      
 5               22 <tibble [6,372 × 4]> <tibble [2,124 × 4]> <lm>   <dbl>      
 6               24 <tibble [6,372 × 4]> <tibble [2,124 × 4]> <lm>   <dbl>      
 7               33 <tibble [6,372 × 4]> <tibble [2,124 × 4]> <lm>   <dbl>      
 8               34 <tibble [6,372 × 4]> <tibble [2,124 × 4]> <lm>   <dbl>      
 9               36 <tibble [6,372 × 4]> <tibble [2,124 × 4]> <lm>   <dbl>      
10               49 <tibble [6,372 × 4]> <tibble [2,124 × 4]> <lm>   <dbl>      
# ℹ 113 more rows
Code

prediction_df_from_station_nr <- function(station_nr) {
  by_station %>%
    filter(start_station_id == station_nr) %>%
    ungroup() %>%
    select(c(data.test, predictions)) %>%
    unnest(c(data.test, predictions)) %>%
    mutate(start_station_id = station_nr)
}

predictions_from_all_stations <- bind_rows(map(by_station$start_station_id, prediction_df_from_station_nr))
predictions_from_all_stations

# A tibble: 261,252 × 6
   floor_start_dh      n_rides start_hour weekday_start predictions
   <dttm>                <dbl> <fct>      <fct>               <dbl>
 1 2024-09-22 13:00:00       1 13         1                   1.17 
 2 2024-09-22 14:00:00       1 14         1                   1.25 
 3 2024-09-22 15:00:00       0 15         1                   1.20 
 4 2024-09-22 16:00:00       0 16         1                   1.04 
 5 2024-09-22 17:00:00       1 17         1                   0.751
 6 2024-09-22 18:00:00       1 18         1                   0.675
 7 2024-09-22 19:00:00       0 19         1                   0.396
 8 2024-09-22 20:00:00       0 20         1                   0.486
 9 2024-09-22 21:00:00       1 21         1                   0.222
10 2024-09-22 22:00:00       0 22         1                  -0.129
# ℹ 261,242 more rows
# ℹ 1 more variable: start_station_id <dbl>
…
# The latitude and longitude of the stations may change over time -> calculate the average lon and lat of each station through time
station  <- bike_rides_2024_data %>% 
  select(start_station_id, start_station_longitude, start_station_latitude) %>% 
  group_by(start_station_id) %>% 
  summarise(lon = sum(start_station_longitude)/n(), lat = sum(start_station_latitude)/n())
station

# A tibble: 123 × 3
   start_station_id   lon   lat
              <int> <dbl> <dbl>
 1                3  5.33  60.4
 2                5  5.33  60.4
 3                7  5.32  60.4
 4                8  5.36  60.4
 5               22  5.32  60.4
 6               24  5.35  60.4
 7               33  5.35  60.4
 8               34  5.33  60.4
 9               36  5.32  60.4
10               49  5.32  60.4
# ℹ 113 more rows
…
